{"results":[{"backdrop_path":"\/86L8wqGMDbwURPni2t7FQ0nDjsH.jpg","genre_ids":[28,53],"original_language":"en","original_title":"Hard Kill","poster_path":"\/ugZW8ocsrfgI95pnQ7wrmKDxIe.jpg","vote_count":201,"video":false,"vote_average":5,"title":"Hard Kill","overview":"The work of billionaire tech CEO Donovan Chalmers is so valuable that he hires mercenaries to protect it, and a terrorist group kidnaps his daughter just to get it.","release_date":"2020-10-23","id":724989,"popularity":1886.945,"adult":false},{"backdrop_path":"\/lM9f4CnWU4RIY8HiVrwmrNKJpYN.jpg","id":650747,"original_language":"es","original_title":"Historias lamentables","poster_path":"\/sp4zXS3x4wHyL8wm8zLioiBrxuR.jpg","title":"Unfortunate Stories","video":false,"vote_average":7.2,"genre_ids":[35],"overview":"Four interconnected plots starring Ramón, a young heir; Bermejo, a tourist obsessed with order; Ayoub, an African immigrant pursuing his dream; and Alipio, a businessman addicted with gambling.","release_date":"2020-11-19","vote_count":35,"popularity":1342.233,"adult":false},{"backdrop_path":"\/gnf4Cb2rms69QbCnGFJyqwBWsxv.jpg","genre_ids":[53,28,18,80],"original_language":"fr","original_title":"Bronx","poster_path":"\/9HT9982bzgN5on1sLRmc1GMn6ZC.jpg","adult":false,"video":false,"vote_average":5.9,"id":671039,"vote_count":253,"release_date":"2020-10-30","overview":"Caught in the crosshairs of police corruption and Marseille’s warring gangs, a loyal cop must protect his squad by taking matters into his own hands.","popularity":1174.741,"title":"Rogue City"},{"backdrop_path":"\/2Fk3AB8E9dYIBc2ywJkxk8BTyhc.jpg","genre_ids":[28,53],"original_language":"en","original_title":"Greenland","poster_path":"\/bNo2mcvSwIvnx8K6y1euAc1TLVq.jpg","vote_count":758,"video":false,"vote_average":7.2,"title":"Greenland","overview":"John Garrity, his estranged wife and their young son embark on a perilous journey to find sanctuary as a planet-killing comet hurtles toward Earth. Amid terrifying accounts of cities getting levelled, the Garrity's experience the best and worst in humanity. As the countdown to the global apocalypse approaches zero, their incredible trek culminates in a desperate and last-minute flight to a possible safe haven.","release_date":"2020-07-29","id":524047,"popularity":1138.714,"adult":false},{"backdrop_path":"\/8rIoyM6zYXJNjzGseT3MRusMPWl.jpg","id":531219,"original_language":"en","original_title":"Roald Dahl's The Witches","poster_path":"\/betExZlgK0l7CZ9CsCBVcwO1OjL.jpg","title":"Roald Dahl's The Witches","video":false,"vote_average":6.9,"genre_ids":[14,10751,12,35,27],"overview":"In late 1967, a young orphaned boy goes to live with his loving grandma in the rural Alabama town of Demopolis. As the boy and his grandmother encounter some deceptively glamorous but thoroughly diabolical witches, she wisely whisks him away to a seaside resort. Regrettably, they arrive at precisely the same time that the world's Grand High Witch has gathered.","release_date":"2020-10-26","vote_count":827,"popularity":1102.142,"adult":false},{"backdrop_path":"\/gEjNlhZhyHeto6Fy5wWy5Uk3A9D.jpg","genre_ids":[28,27,53],"original_language":"ko","original_title":"반도","poster_path":"\/sy6DvAu72kjoseZEjocnm2ZZ09i.jpg","title":"Peninsula","video":false,"vote_average":7,"id":581392,"overview":"A soldier and his team battle hordes of post-apocalyptic zombies in the wastelands of the Korean Peninsula.","release_date":"2020-07-15","vote_count":837,"popularity":1008.824,"adult":false},{"backdrop_path":"\/ckfwfLkl0CkafTasoRw5FILhZAS.jpg","id":602211,"original_language":"en","original_title":"Fatman","poster_path":"\/4n8QNNdk4BOX9Dslfbz5Dy6j1HK.jpg","vote_count":81,"video":false,"vote_average":6.1,"genre_ids":[28,35,14],"overview":"A rowdy, unorthodox Santa Claus is fighting to save his declining business. Meanwhile, Billy, a neglected and precocious 12 year old, hires a hit man to kill Santa after receiving a lump of coal in his stocking.","release_date":"2020-11-13","adult":false,"popularity":989.472,"title":"Fatman"},{"backdrop_path":"\/h5sUE9jqoYrjsFjANJXL0gpZGye.jpg","id":624779,"original_language":"en","original_title":"VFW","poster_path":"\/AnVD7Gn14uOTQhcc5xYZGQ9DRvS.jpg","genre_ids":[28,53,27],"video":false,"vote_average":4.8,"overview":"A typical night for veterans at a VFW turns into an all-out battle for survival when a desperate teen runs into the bar with a bag of stolen drugs. When a gang of violent punks come looking for her, the vets use every weapon at their disposal to protect the girl and themselves from an unrelenting attack.","vote_count":17,"release_date":"2020-10-14","adult":false,"popularity":758.346,"title":"VFW"},{"backdrop_path":"\/54yOImQgj8i85u9hxxnaIQBRUuo.jpg","id":539885,"original_language":"en","original_title":"Ava","poster_path":"\/qzA87Wf4jo1h8JMk9GilyIYvwsA.jpg","vote_count":676,"video":false,"vote_average":5.6,"genre_ids":[28,80,18,53],"overview":"A black ops assassin is forced to fight for her own survival after a job goes dangerously wrong.","release_date":"2020-07-02","adult":false,"popularity":666.113,"title":"Ava"},{"backdrop_path":"\/x4UkhIQuHIJyeeOTdcbZ3t3gBSa.jpg","genre_ids":[28,12,18,53],"original_language":"en","original_title":"Rogue","poster_path":"\/uOw5JD8IlD546feZ6oxbIjvN66P.jpg","id":718444,"video":false,"vote_average":5.7,"vote_count":382,"overview":"Battle-hardened O’Hara leads a lively mercenary team of soldiers on a daring mission: rescue hostages from their captors in remote Africa. But as the mission goes awry and the team is stranded, O’Hara’s squad must face a bloody, brutal encounter with a gang of rebels.","release_date":"2020-08-20","adult":false,"popularity":654.645,"title":"Rogue"},{"backdrop_path":"\/6hgItrYQEG33y0I7yP2SRl2ei4w.jpg","genre_ids":[10749,18],"original_language":"en","original_title":"After We Collided","poster_path":"\/kiX7UYfOpYrMFSAGbI6j1pFkLzQ.jpg","vote_count":2189,"video":false,"vote_average":7.3,"title":"After We Collided","overview":"Tessa finds herself struggling with her complicated relationship with Hardin; she faces a dilemma that could change their lives forever.","release_date":"2020-09-02","id":613504,"popularity":649.782,"adult":false},{"backdrop_path":"\/6C7ZGYeR8QpT3X6C2RFEu6yiSKK.jpg","id":622855,"original_language":"en","original_title":"Jingle Jangle: A Christmas Journey","poster_path":"\/5RbyHIVydD3Krmec1LlUV7rRjet.jpg","genre_ids":[10751,14,10402],"video":false,"vote_average":7.1,"title":"Jingle Jangle: A Christmas Journey","overview":"An imaginary world comes to life in a holiday tale of an eccentric toymaker, his adventurous granddaughter, and a magical invention that has the power to change their lives forever.","release_date":"2020-11-06","vote_count":155,"popularity":601.762,"adult":false},{"backdrop_path":"\/htBUhLSS7FfHtydgYxUWjL3J1Q1.jpg","id":560050,"original_language":"en","original_title":"Over the Moon","poster_path":"\/lQfdytwN7eh0tXWjIiMceFdBBvD.jpg","title":"Over the Moon","video":false,"vote_average":7.7,"genre_ids":[16,12,10751,14],"overview":"In this animated musical, a girl builds a rocket ship and blasts off, hoping to meet a mythical moon goddess.","release_date":"2020-10-16","vote_count":501,"popularity":551.859,"adult":false},{"backdrop_path":"\/d1sVANghKKMZNvqjW0V6y1ejvV9.jpg","genre_ids":[16,28,36,12,14,18],"original_language":"ja","original_title":"劇場版「鬼滅の刃」無限列車編","poster_path":"\/h8Rb9gBr48ODIwYUttZNYeMWeUU.jpg","id":635302,"video":false,"vote_average":6,"title":"Demon Slayer the Movie: Mugen Train","vote_count":83,"release_date":"2020-10-16","overview":"Tanjirō Kamado, joined with Inosuke Hashibira, a boy raised by boars who wears a boar's head, and Zenitsu Agatsuma, a scared boy who reveals his true power when he sleeps, boards the Infinity Train on a new mission with the Fire Hashira, Kyōjurō Rengoku, to defeat a demon who has been tormenting the people and killing the demon slayers who oppose it!","popularity":550.181,"adult":false},{"backdrop_path":"\/jeAQdDX9nguP6YOX6QSWKDPkbBo.jpg","genre_ids":[28,14,878],"original_language":"en","original_title":"Jiu Jitsu","poster_path":"\/eLT8Cu357VOwBVTitkmlDEg32Fs.jpg","adult":false,"video":false,"vote_average":6.2,"id":590706,"vote_count":88,"release_date":"2020-11-20","overview":"Every six years, an ancient order of jiu-jitsu fighters joins forces to battle a vicious race of alien invaders. But when a celebrated war hero goes down in defeat, the fate of the planet and mankind hangs in the balance.","popularity":375.777,"title":"Jiu Jitsu"},{"backdrop_path":"\/zogWnCSztU8xvabaepQnAwsOtOt.jpg","id":531499,"original_language":"en","original_title":"The Tax Collector","poster_path":"\/3eg0kGC2Xh0vhydJHO37Sp4cmMt.jpg","genre_ids":[28,80,18],"video":false,"vote_average":5.9,"title":"The Tax Collector","overview":"David Cuevas is a family man who works as a gangland tax collector for high ranking Los Angeles gang members. He makes collections across the city with his partner Creeper making sure people pay up or will see retaliation. An old threat returns to Los Angeles that puts everything David loves in harm’s way.","release_date":"2020-08-07","vote_count":194,"popularity":363.914,"adult":false},{"backdrop_path":"\/wzJRB4MKi3yK138bJyuL9nx47y6.jpg","genre_ids":[28,53,878],"original_language":"en","original_title":"Tenet","poster_path":"\/k68nPLbIST6NP96JmTxmZijEvCA.jpg","overview":"Armed with only one word - Tenet - and fighting for the survival of the entire world, the Protagonist journeys through a twilight world of international espionage on a mission that will unfold in something beyond real time.","video":false,"vote_average":7.5,"id":577922,"vote_count":2405,"release_date":"2020-08-22","title":"Tenet","popularity":355.534,"adult":false},{"backdrop_path":"\/gkvOmVXdukAwpG8LjTaHo2l2cWU.jpg","genre_ids":[27],"original_language":"en","original_title":"Come Play","poster_path":"\/e98dJUitAoKLwmzjQ0Yxp1VQrnU.jpg","vote_count":87,"video":false,"vote_average":6.8,"id":571384,"overview":"A lonely young boy feels different from everyone else. Desperate for a friend, he seeks solace and refuge in his ever-present cell phone and tablet. When a mysterious creature uses the boy’s devices against him to break into our world, his parents must fight to save their son from the monster beyond the screen.","release_date":"2020-10-28","adult":false,"popularity":342.876,"title":"Come Play"},{"backdrop_path":"\/qsxhnirlp7y4Ae9bd11oYJSX59j.jpg","id":446893,"original_language":"en","original_title":"Trolls World Tour","poster_path":"\/7W0G3YECgDAfnuiHG91r8WqgIOe.jpg","genre_ids":[16,10751,35,14,12,10402],"video":false,"vote_average":7.5,"overview":"Queen Poppy and Branch make a surprising discovery — there are other Troll worlds beyond their own, and their distinct differences create big clashes between these various tribes. When a mysterious threat puts all of the Trolls across the land in danger, Poppy, Branch, and their band of friends must embark on an epic quest to create harmony among the feuding Trolls to unite them against certain doom.","vote_count":1319,"release_date":"2020-03-12","adult":false,"popularity":304.056,"title":"Trolls World Tour"},{"backdrop_path":"\/cjaOSjsjV6cl3uXdJqimktT880L.jpg","genre_ids":[12,14,10751,16],"original_language":"en","original_title":"The Croods: A New Age","poster_path":"\/tK1zy5BsCt1J4OzoDicXmr0UTFH.jpg","vote_count":26,"video":false,"vote_average":7.7,"title":"The Croods: A New Age","overview":"After leaving their cave, the Croods encounter their biggest threat since leaving: another family called the Bettermans, who claim and show to be better and evolved. Grug grows suspicious of the Betterman parents, Phil and Hope,  as they secretly plan to break up his daughter Eep with her loving boyfriend Guy to ensure that their daughter Dawn has a loving and smart partner to protect her.","release_date":"2020-11-25","id":529203,"popularity":299.874,"adult":false}],"page":1,"total_results":1397,"dates":{"minimum":"2020-10-12","maximum":"2020-11-29"},"total_pages":70}
